<?xml version="1.0" encoding="utf-8"?>
<!-- Generator: Adobe Illustrator 19.0.0, SVG Export Plug-In . SVG Version: 6.00 Build 0)  -->
<svg version="1.1" id="Layer_1" xmlns="http://www.w3.org/2000/svg" xmlns:xlink="http://www.w3.org/1999/xlink" x="0px" y="0px"
	 viewBox="0 0 500 500" style="enable-background:new 0 0 500 500;" xml:space="preserve">
<style type="text/css">
	.st0{fill-rule:evenodd;clip-rule:evenodd;fill:#BEC2C2;}
</style>
<polygon id="XMLID_3_" class="st0" points="35.5,102.5 27.9,129.9 1,137.7 27.9,145.6 35.5,173 43.2,145.6 70.1,137.7 43.2,129.9 
	"/>
<polygon id="XMLID_13_" class="st0" points="43.6,209.9 24.4,215.5 43.6,221.1 49,240.6 54.5,221.1 73.7,215.5 54.5,209.9 49,190.3 
	"/>
<polygon id="XMLID_8_" class="st0" points="116.3,100.8 97.1,106.4 116.3,112 121.7,131.6 127.2,112 146.4,106.4 127.2,100.8 
	121.7,81.2 "/>
<path id="XMLID_31_" class="st0" d="M323.4,207.8l-87.9,99.4l-44-44c-0.8-0.8-2-1.4-3.4-1.4c-2.6,0-4.7,2.1-4.7,4.7
	c0,1.3,0.5,2.5,1.4,3.4l47.4,47.4c0.9,0.9,2,1.4,3.4,1.4c1.3,0,2.5-0.5,3.4-1.4l91.2-102.7c0.8-0.9,1.4-2,1.4-3.4
	c0-2.6-2.1-4.7-4.7-4.7C325.5,206.4,324.3,207,323.4,207.8z"/>
<path id="XMLID_28_" class="st0" d="M276.2,124.3h-37.9c-85.3,0-113.7,28.4-113.7,113.7v37.9c0,85.3,28.4,113.7,113.7,113.7h37.9
	c85.3,0,113.7-28.4,113.7-113.7V238C390,152.7,361.5,124.3,276.2,124.3z M380.5,274.6c0,79.2-26.4,105.6-105.6,105.6h-35.2
	c-79.2,0-105.6-26.4-105.6-105.6v-35.2c0-79.2,26.4-105.6,105.6-105.6h35.2c79.2,0,105.6,26.4,105.6,105.6V274.6z"/>
<polygon id="XMLID_23_" class="st0" points="418,388 398.8,393.6 418,399.2 423.4,418.8 428.9,399.2 448.1,393.6 428.9,388 
	423.4,368.4 "/>
<polygon id="XMLID_18_" class="st0" points="464.5,302.4 456.8,329.8 429.9,337.7 456.8,345.5 464.5,372.9 472.1,345.5 499,337.7 
	472.1,329.8 "/>
</svg>
