<?xml version="1.0" encoding="utf-8"?>
<!-- Generator: Adobe Illustrator 19.0.0, SVG Export Plug-In . SVG Version: 6.00 Build 0)  -->
<svg version="1.1" id="Layer_1" xmlns="http://www.w3.org/2000/svg" xmlns:xlink="http://www.w3.org/1999/xlink" x="0px" y="0px"
	 viewBox="0 0 17 17" style="enable-background:new 0 0 17 17;" xml:space="preserve">
<style type="text/css">
	.st0{fill-rule:evenodd;clip-rule:evenodd;}
</style>
<polygon id="XMLID_21_" class="st0" points="11.8,5.1 7.4,9.5 7.4,9.5 5.3,7.4 4.1,8.6 7.4,11.9 13,6.3 "/>
<path id="XMLID_10_" d="M15.5,14.1c0,0.8-0.6,1.4-1.4,1.4H2.9c-0.8,0-1.4-0.6-1.4-1.4V2.9c0-0.8,0.6-1.4,1.4-1.4h11.2
	c0.8,0,1.4,0.6,1.4,1.4v9.6h1V2.9c0-1.3-1.1-2.4-2.4-2.4H2.9c-1.3,0-2.4,1.1-2.4,2.4v11.2c0,1.3,1.1,2.4,2.4,2.4h11.2
	c1.3,0,2.4-1.1,2.4-2.4v-2.6h-1V14.1z"/>
</svg>
