<?xml version="1.0" encoding="utf-8"?>
<!-- Generator: Adobe Illustrator 19.0.0, SVG Export Plug-In . SVG Version: 6.00 Build 0)  -->
<svg version="1.1" id="Layer_1" xmlns="http://www.w3.org/2000/svg" xmlns:xlink="http://www.w3.org/1999/xlink" x="0px" y="0px"
	 viewBox="0 0 500 500" style="enable-background:new 0 0 500 500;" xml:space="preserve">
<g>
	<path d="M437.7,0H62.3C28,0,0,27.9,0,62.3v375.4C0,472,27.9,500,62.3,500h375.4c34.3,0,62.3-27.9,62.3-62.3V62.3
		C500,28,472.1,0,437.7,0z M189.3,359.8c-58.5,0-105.9-48.7-105.9-108.7c0-60.1,47.4-108.7,105.9-108.7c28.6,0,52.5,10.6,71,28.3
		l-28.8,28.4c-8-7.8-21.8-16.8-42.3-16.8c-36.2,0-65.6,30.7-65.6,68.6s29.5,68.8,65.7,68.8c41.9,0,57.7-30.7,60.1-46.7H189v-38
		h100.4c0.8,6,1.6,11.2,1.6,18.3C291,315.4,250.4,359.8,189.3,359.8z M426,272h-32v34h-33v-34h-33v-34h33v-33h33v33h32.4H426V272z"
		/>
</g>
</svg>
