<?xml version="1.0" encoding="utf-8"?>
<!-- Generator: Adobe Illustrator 19.0.0, SVG Export Plug-In . SVG Version: 6.00 Build 0)  -->
<svg version="1.1" id="Layer_1" xmlns="http://www.w3.org/2000/svg" xmlns:xlink="http://www.w3.org/1999/xlink" x="0px" y="0px"
	 viewBox="0 0 500 500" style="enable-background:new 0 0 500 500;" xml:space="preserve">
<path id="XMLID_7_" d="M409,323.4c0-6.3-5.1-11.4-11.2-11.4h-48.3L315,216.9c14.2-15.7,22.7-36.5,22.7-59.3
	c0-42.7-30.7-78.6-70.7-87.2V18.6C267,8.4,258.2,0,248,0s-19,8.4-19,18.6v52c-39,8.6-70.4,44.4-70.4,87.3c0,22.8,9,43.2,23,59
	L147,312h-44.8c-6.3,0-11.2,5.2-11.2,11.5c0,6.3,5.1,11.5,11.2,11.5H139L96.3,451.8l22.1,47.8L178.5,335H238v20.2
	c0,6.3,4.4,11.2,10.5,11.2c6.3,0,10.5-5.1,10.5-11.2V335h59l59.5,164.9l22.1-48.7l-42-116.2h40.1C403.9,335,409,329.7,409,323.4z
	 M248.3,105.8c28.7,0,52.1,23.4,52.1,52.1c0,28.7-23.4,52.1-52.1,52.1c-28.7,0-52.1-23.4-52.1-52.1
	C196.2,129.2,219.6,105.8,248.3,105.8z M259,312v-19.9c0-6.3-4.4-11.2-10.5-11.2c-6.3,0-10.5,5.1-10.5,11.2V312h-51.4l26.4-72.2
	c10.9,4.6,22.8,7.4,35.3,7.4c12.5,0,24.4-2.8,35.3-7.5l26.4,72.2H259z"/>
</svg>
