<?xml version="1.0" encoding="utf-8"?>
<!-- Generator: Adobe Illustrator 19.0.0, SVG Export Plug-In . SVG Version: 6.00 Build 0)  -->
<svg version="1.1" id="Layer_1" xmlns="http://www.w3.org/2000/svg" xmlns:xlink="http://www.w3.org/1999/xlink" x="0px" y="0px"
	 viewBox="0 0 500 500" style="enable-background:new 0 0 500 500;" xml:space="preserve">
<path id="XMLID_2_" d="M250,500C112.1,500,0,387.9,0,250S112.1,0,250,0s250,112.1,250,250S387.9,500,250,500z M250,34.7
	C131.3,34.7,34.7,131.3,34.7,250c0,118.7,96.6,215.3,215.3,215.3c118.7,0,215.3-96.6,215.3-215.3C465.3,131.3,368.7,34.7,250,34.7z"
	/>
<polygon id="XMLID_8_" points="180,362.8 180,137.5 349,250.2 "/>
</svg>
