<?xml version="1.0" encoding="utf-8"?>
<!-- Generator: Adobe Illustrator 19.0.0, SVG Export Plug-In . SVG Version: 6.00 Build 0)  -->
<svg version="1.1" id="Layer_1" xmlns="http://www.w3.org/2000/svg" xmlns:xlink="http://www.w3.org/1999/xlink" x="0px" y="0px"
	 viewBox="0 0 500 500" style="enable-background:new 0 0 500 500;" xml:space="preserve">
<path id="XMLID_6_" d="M482.1,125v250H17.9V125H482.1 M500,107.1H0v285.7h500V107.1L500,107.1z"/>
<path id="XMLID_3_" d="M198.9,327.2V161.6l120.5,82.8L198.9,327.2z M216.7,195.5v97.7l71.1-48.9L216.7,195.5z"/>
</svg>
